…
    ##   <chr>          <dbl>     <dbl>     <dbl>   <dbl>
    ## 1 (Intercept)   0.0453  0.000760      59.6       0
    ## 2 RMVTETH5      0.0424  0.000550      77.1       0
    ## 
    ## > tidy(model2)
    ## # A tibble: 4 x 5
    ##   term        estimate std.error statistic  p.value
    ##   <chr>          <dbl>     <dbl>     <dbl>    <dbl>
    ## 1 (Intercept)   0.0508  0.000859      59.2 0.      
    ## 2 NOTEETH       0.130   0.00190       68.2 0.      
    ## 3 FEWTEETH      0.0823  0.00158       52.3 0.      
    ## 4 MOSTTEETH     0.0264  0.00126       20.9 4.11e-97
    ## 
    ## > tidy(full.model)
    ## # A tibble: 27 x 5
    ##    term        estimate std.error statistic   p.value
    ##    <chr>          <dbl>     <dbl>     <dbl>     <dbl>
    ##  1 (Intercept)  0.0397    0.00234     17.0  1.15e- 64
    ##  2 NOTEETH      0.0629    0.00212     29.7  7.31e-194
    ##  3 FEWTEETH     0.0359    0.00167     21.5  4.28e-102
    ##  4 MOSTTEETH    0.00690   0.00127      5.44 5.32e-  8
    ##  5 MALE         0.0572    0.00110     52.0  0.       
    ##  6 BLACK       -0.0257    0.00205    -12.5  6.45e- 36
    ##  7 HISPANIC    -0.0210    0.00250     -8.41 4.18e- 17
    ##  8 ASIAN       -0.0215    0.00463     -4.64 3.47e-  6
    ##  9 OTHRACE      0.0219    0.00268      8.16 3.28e- 16
    ## 10 AGE1         0.0193    0.00136     14.2  5.83e- 46
    ## # ... with 17 more rows
    ## 
    ## > tidy(fwd.model)
    ## # A tibble: 27 x 5
    ##    term        estimate std.error statistic   p.value
    ##    <chr>          <dbl>     <dbl>     <dbl>     <dbl>
    ##  1 (Intercept)   0.0397   0.00234      17.0 1.15e- 64
    ##  2 NODIABETE    -0.0691   0.00141     -49.1 0.       
    ##  3 NOTEETH       0.0629   0.00212      29.7 7.31e-194
    ##  4 MALE          0.0572   0.00110      52.0 0.       
    ##  5 FEWTEETH      0.0359   0.00167      21.5 4.28e-102
    ##  6 AGE3          0.0834   0.00192      43.5 0.       
    ##  7 AGE2          0.0495   0.00151      32.8 6.73e-235
    ##  8 NODENVST      0.0170   0.00129      13.2 1.01e- 39
    ##  9 NOEXER        0.0174   0.00124      14.0 1.71e- 44
    ## 10 FRMRSMK       0.0268   0.00120      22.3 1.61e-110
    ## # ... with 17 more rows
    ## 
    ## > write.csv(tidy(model1), file = "../output/linear/TidyRegressionModel1.csv")
    ## 
    ## > write.csv(tidy(model2), file = "../output/linear/TidyRegressionModel2.csv")
    ## 
    ## > write.csv(tidy(full.model), file = "../output/linear/TidyRegressionModelFull.csv")
    ## 
    ## > write.csv(tidy(fwd.model), file = "../output/linear/TidyRegressionModelFWD.csv")
…
